﻿1- que pasa al devolver items de una factura ya pagada o que tenga abono y el monto devuelto sea igual o mayor al monto adeudado
2- montos incorrectos de costos al introducir inventario


----------------------------
se agrego columna NoDocumento en Factura
se agrego conteo de cotizaciones COT



---------------------------------------
Facturas
Cotizaciones
inventario
entrada inventario
pagos
cxc
cxp
gastos
usuarios


------------------------------------- 2018-10-01
se agrego AlmacenId a los usuarios
se agrego AlmacenId a la factura

------------------------------------- 2018-10-07
Se agrego CajaId a los usuarios
------------------------------------- 2018-10-07
se agrego tiempoAperturaCajaHoras int a Users 
se agrego CajaId a las facturas